[20170727_170948][INFO][BBVA, 1111todosH11, Tesoreria, E4, F16, bbva1, 16, todas:h, 0]
[20170727_170948][INFO][BBVA, 1111cabeceraH11, Cuenta2010, E4, F16, bbva2, 16, todas:h, 0]
[20170727_170948][INFO][BBVA, 1111111113, Tesoreria2, E4, F16, bbva3, 16, todas:h, 0]
[20170727_170948][INFO][BBVA, 111finalH111114, , E4, F16, bbva4, 16, todas:h, 0]
[20170727_170948][INFO][La Caixa, 1000000002, , D4, E4, bbva6, 4, todas:f, 1]
[20170727_170948][INFO][La Caixa, 1000000003, Cuenta2015, D4, E4, bbva7, 4, todas:f, 0]
[20170727_170948][INFO][La Caixa, 1000000004, Tesoreria25, D4, E4, bbva8, 4, todas:f, 0]
[20170727_170948][INFO][La Caixa, 1000000005, Tesoreria23, D4, E4, bbva9, 4, todas:f, 0]
[20170727_170948][INFO][La Caixa, 1000000006, , D4, E4, bbva10, 4, todas:f, 1]
[20170727_170948][INFO][La Caixa, 1, , D4, E4, bbva11, 4, todas:f, 0]
[20170727_170948][INFO][La Caixa, 1000000008, Cuenta2015, D4, E4, bbva12, 4, todas:f, 0]
[20170727_170948][INFO][La Caixa, 1000000009, , D4, E4, bbva13, 4, todas:f, 2]
[20170727_170948][INFO][POSTA, 1000000009, Cuenta2015, E14, D14, bbva14, 2, todas:f, 1]
