[20170721_115223][INFO][BBVA, 1111888111, Tesoreria, E4, F16, bbva1, 2, todas:H]
[20170721_115223][INFO][BBVA, 1111111112, Cuenta2010, E4, F16, bbva2, 2, cabecera:H3]
[20170721_115223][INFO][BBVA, 1111111113, Tesoreria2, E4, F16, bbva3, 2, todas:H]
[20170721_115223][INFO][BBVA, 1111111114, , E4, F16, bbva4, 2, final:H]
[20170721_115223][INFO][La Caixa, 1000000002, , D4, E4, bbva6, 2, todas:f]
[20170721_115223][INFO][La Caixa, 1000000003, Cuenta2015, D4, E4, bbva7, 2, cabecera:e3]
[20170721_115223][INFO][La Caixa, 1000000004, Tesoreria25, D4, E4, bbva8, 2, todas:h]
[20170721_115223][INFO][La Caixa, 1000000005, Tesoreria23, D4, E4, bbva9, 2, todas:h]
[20170721_115223][INFO][La Caixa, 1000000006, , D4, E4, bbva10, 2, final:f]
[20170721_115223][INFO][La Caixa, 1, , D4, E4, bbva11, 2, cabecera:g2]
[20170721_115223][INFO][La Caixa, 1000000008, Cuenta2015, D4, E4, bbva12, 2, cabecera:j2]
[20170721_115223][INFO][La Caixa, 1000000009, , D4, E4, bbva13, 2, final:f]
[20170721_115223][INFO][POSTA, 1000000009, Cuenta2015, E14, D14, bbva14, 2, todas:f]
