[20170822_114040][INFO][BBVA, 1111111112, Cabecera010, F, G, bbva, 16, cabecera:, 0]
[20170822_114040][INFO][BBVA, 1111111113, Tesoreria2, E, F, bbva, 2, todas:H, 3]
[20170822_114040][INFO][BBVA, 1111111114, , E, F, bbva, 2, todas:H, 3]
[20170822_114040][INFO][La Caixa, 1000000002, , D, E, bbva, 4, todas:F, 0]
[20170822_114040][INFO][La Caixa, 1000000003, Cuenta2015, D, E, bbva, 2, todas:G, 3]
[20170822_114040][INFO][La Caixa, 1000000004, Cabecera25, D, E, bbva, 2, cabecera:, 3]
[20170822_114040][INFO][La Caixa, 1000000005, Tesoreria23, D, E, bbva, 2, todas:G, 3]
[20170822_114040][INFO][La Caixa, 1000000006, , D, E, bbva, 2, todas:G, 3]
[20170822_114040][INFO][La Caixa, 1, , D, E, lacaixa, 4, todas:F, 0]
[20170822_114040][INFO][La Caixa, 1000000008, Cuenta2015, D, E, bbva, 2, todas:G, 3]
[20170822_114040][INFO][La Caixa, 1000000009, , D, E, bbva, 2, todas:G, 3]
[20170822_114040][INFO][POSTA, 1000000009, Cuenta2015, E, D, bbva, 2, todas:G, 3]
