[20170816_171717][INFO][BBVA, 1111888111, Tesoreria, E, F, bbva, 16, todas:H, 3]
[20170816_171717][INFO][BBVA, 1111111112, Cuenta2010, F, G, bbva, 2, todas:H, 3]
[20170816_171717][INFO][BBVA, 1111111113, Tesoreria2, E, F, bbva, 2, todas:H, 3]
[20170816_171717][INFO][BBVA, 1111111114, , E, F, bbva, 2, todas:H, 3]
[20170816_171717][INFO][La Caixa, 1000000002, , D, E, bbva, 4, todas:F, 0]
[20170816_171717][INFO][La Caixa, 1000000003, Cuenta2015, D, E, bbva, 2, todas:G, 3]
[20170816_171717][INFO][La Caixa, 1000000004, Tesoreria25, D, E, bbva, 2, todas:G, 3]
[20170816_171717][INFO][La Caixa, 1000000005, Tesoreria23, D, E, bbva, 2, todas:G, 3]
[20170816_171717][INFO][La Caixa, 1000000006, , D, E, bbva, 2, todas:G, 3]
[20170816_171717][INFO][La Caixa, 1, , D, E, lacaixa, 4, todas:F, 0]
[20170816_171717][INFO][La Caixa, 1000000008, Cuenta2015, D, E, bbva, 2, todas:G, 3]
[20170816_171717][INFO][La Caixa, 1000000009, , D, E, bbva, 2, todas:G, 3]
[20170816_171717][INFO][POSTA, 1000000009, Cuenta2015, E, D, bbva, 2, todas:G, 3]
