[2017/7/19 12:8:20][INFO]line: rutaDestinoArchivos:(C:/Saldos_SW_Archivos/)rutaDestinoArchivos***findatos
[2017/7/19 12:8:20][INFO]longitud line: 74
[2017/7/19 12:8:20][INFO]strRutaOutputProperties: C:/Saldos_Ruta_Default/
