v1.0.12[20171018_104242][INFO]strOpcionComboSelected: 
v1.0.12[20171018_104242][INFO]getStrOpcionBancoSelected(): 
v1.0.12[20171018_104242][INFO]getStrOpcionCuentaSelected(): 
v1.0.12[20171018_104242][INFO]datos: 0
v1.0.12[20171018_104242][INFO]----setIntRowPosicionInicialObservaciones: 0
v1.0.12[20171018_104242][INFO]----setIntCellPosicionInicialObservaciones: 0
v1.0.12[20171018_104242][INFO]----setIntRowPosicionInicialImporte: 0
v1.0.12[20171018_104242][INFO]----setIntCellPosicionInicialImporte: 0
v1.0.12[20171018_104242][INFO]----setIntRowPosicionInicialSaldo: 0
v1.0.12[20171018_104242][INFO]----setIntCellPosicionInicialSaldo: 0
