[2017/7/19 11:13:54][INFO][BBVA, 1111888111, Tesoreria, E4, F16, banco1]
[2017/7/19 11:13:54][INFO][BBVA, 1111111112, Cuenta2010, E4, F16, banco2]
[2017/7/19 11:13:54][INFO][BBVA, 1111111113, Tesoreria2, E4, F16, banco3]
[2017/7/19 11:13:54][INFO][BBVA, 1111111114, , E4, F16, banco4]
[2017/7/19 11:13:54][INFO][La Caixa, 1000000002, , D4, E4, banco6]
[2017/7/19 11:13:54][INFO][La Caixa, 1000000003, Cuenta2015, D4, E4, banco7]
[2017/7/19 11:13:54][INFO][La Caixa, 1000000004, Tesoreria25, D4, E4, banco8]
[2017/7/19 11:13:54][INFO][La Caixa, 1000000005, Tesoreria23, D4, E4, banco9]
[2017/7/19 11:13:54][INFO][La Caixa, 1000000006, , D4, E4, banco10]
[2017/7/19 11:13:54][INFO][La Caixa, 1000000008, Cuenta2015, D4, E4, banco12]
[2017/7/19 11:13:54][INFO][La Caixa, 1000000009, , D4, E4, banco13]
[2017/7/19 11:13:54][INFO][POSTA, 1000000009, Cuenta2015, E14, D14, banco14]
