[20170719_175939][INFO][BBVA, 1111888111, Tesoreria, E4, F16, bbva1]
[20170719_175939][INFO][BBVA, 1111111112, Cuenta2010, E4, F16, bbva2]
[20170719_175939][INFO][BBVA, 1111111113, Tesoreria2, E4, F16, bbva3]
[20170719_175939][INFO][BBVA, 1111111114, , E4, F16, bbva4]
[20170719_175939][INFO][La Caixa, 1000000002, , D4, E4, bbva6]
[20170719_175939][INFO][La Caixa, 1000000003, Cuenta2015, D4, E4, bbva7]
[20170719_175939][INFO][La Caixa, 1000000004, Tesoreria25, D4, E4, bbva8]
[20170719_175939][INFO][La Caixa, 1000000005, Tesoreria23, D4, E4, bbva9]
[20170719_175939][INFO][La Caixa, 1000000006, , D4, E4, bbva10]
[20170719_175939][INFO][La Caixa, 1000000008, Cuenta2015, D4, E4, bbva12]
[20170719_175939][INFO][La Caixa, 1000000009, , D4, E4, bbva13]
[20170719_175939][INFO][POSTA, 1000000009, Cuenta2015, E14, D14, bbva14]
