[20170731_163115][INFO][BBVA, 1111888111, Tesoreria, E, F, bbva1, 16, todas:H, 3]
[20170731_163115][INFO][BBVA, 1111111112, Cuenta2010, E, F, bbva2, 2, todas:H, 3]
[20170731_163115][INFO][BBVA, 1111111113, Tesoreria2, E, F, bbva3, 2, todas:H, 3]
[20170731_163115][INFO][BBVA, 1111111114, , E, F, bbva4, 2, todas:H, 3]
[20170731_163115][INFO][La Caixa, 1000000002, , D, E, bbva6, 4, todas:F, 0]
[20170731_163115][INFO][La Caixa, 1000000003, Cuenta2015, D, E, bbva7, 2, todas:G, 3]
[20170731_163115][INFO][La Caixa, 1000000004, Tesoreria25, D, E, bbva8, 2, todas:G, 3]
[20170731_163115][INFO][La Caixa, 1000000005, Tesoreria23, D, E, bbva9, 2, todas:G, 3]
[20170731_163115][INFO][La Caixa, 1000000006, , D, E, bbva10, 2, todas:G, 3]
[20170731_163115][INFO][La Caixa, 1, , D, E, bbva11, 2, todas:G, 3]
[20170731_163115][INFO][La Caixa, 1000000008, Cuenta2015, D, E, bbva12, 2, todas:G, 3]
[20170731_163115][INFO][La Caixa, 1000000009, , D, E, bbva13, 2, todas:G, 3]
[20170731_163115][INFO][POSTA, 1000000009, Cuenta2015, E, D, bbva14, 2, todas:G, 3]
