[20170731_111947][INFO][BBVA, 1111888111, Tesoreria, E, F, bbva1, 2, todas:H, 3]
[20170731_111947][INFO][BBVA, 1111111112, Cuenta2010, E4, F16, bbva2, 2, todas:H, 3]
[20170731_111947][INFO][BBVA, 1111111113, Tesoreria2, E4, F16, bbva3, 2, todas:H, 3]
[20170731_111947][INFO][BBVA, 1111111114, , E4, F16, bbva4, 2, todas:H, 3]
[20170731_111947][INFO][La Caixa, 1000000002, , D4, E4, bbva6, 2, todas:G, 3]
[20170731_111947][INFO][La Caixa, 1000000003, Cuenta2015, D4, E4, bbva7, 2, todas:G, 3]
[20170731_111947][INFO][La Caixa, 1000000004, Tesoreria25, D4, E4, bbva8, 2, todas:G, 3]
[20170731_111947][INFO][La Caixa, 1000000005, Tesoreria23, D4, E4, bbva9, 2, todas:G, 3]
[20170731_111947][INFO][La Caixa, 1000000006, , D4, E4, bbva10, 2, todas:G, 3]
[20170731_111947][INFO][La Caixa, 1, , D4, E4, bbva11, 2, todas:G, 3]
[20170731_111947][INFO][La Caixa, 1000000008, Cuenta2015, D4, E4, bbva12, 2, todas:G, 3]
[20170731_111947][INFO][La Caixa, 1000000009, , D4, E4, bbva13, 2, todas:G, 3]
[20170731_111947][INFO][POSTA, 1000000009, Cuenta2015, E14, D14, bbva14, 2, todas:G, 3]
