[2017/6/27 17:36:32][INFO     ]1.- (0)Cash/Personal Card<>EURaerea<>9.40<>Cuchillo<>Alberto<>alberto@smallworldfs.com<>1
[2017/6/27 17:36:32][INFO     ]1.- (1)Cash/Personal Card<>GBP<>5.40<>Cuchillo<>Alberto<>alberto@smallworldfs.com<>2
[2017/6/27 17:36:32][INFO     ]1.- (2)Cash/Personal Card<>GBP<>3.40<>Cuchillo<>Alberto<>alberto@smallworldfs.com<>3
[2017/6/27 17:36:32][INFO     ]1.- (3)Cash/Personal Card<>EUR<>2.40<>Cuchillo<>Alberto<>alberto@smallworldfs.com<>4
[2017/6/27 17:36:32][INFO     ]1.- (4)Cash/Personal Card<>EUR<>1.61<>Cuchillo<>Alberto<>alberto@smallworldfs.com<>5
[2017/6/27 17:36:32][INFO     ]1.- (5)Cash/Personal Card<>EUR<>2.40<>Cuchillo<>Alberto<>alberto@smallworldfs.com<>6
[2017/6/27 17:36:32][INFO     ]1.- (6)Cash/Personal Card<>EURaaaaaaerra<>9.40<>primero<>uno<>alberto1111@smallworldfs.com<>7
[2017/6/27 17:36:32][INFO     ]1.- (7)Cash/Personal Card<>GBP<>9.40<>primero<>uno<>alberto1111@smallworldfs.com<>8
[2017/6/27 17:36:32][INFO     ]1.- (8)Cash/Personal Card<>EUR<>9.70<>primero<>uno<>alberto1111@smallworldfs.com<>9
[2017/6/27 17:36:32][INFO     ]1.- (9)Cash/Personal Card<>EUR<>1.30<>primero<>uno<>alberto1111@smallworldfs.com<>10
[2017/6/27 17:36:32][INFO     ]1.- (10)Cash/Personal Card<>EUR<>2.41<>primero<>uno<>alberto1111@smallworldfs.com<>11
[2017/6/27 17:36:32][INFO     ]1.- (11)Cash/Personal Card<>EUR<>6.60<>primero<>uno<>alberto1111@smallworldfs.com<>12
[2017/6/27 17:36:32][INFO     ]1.- (12)Cash/Personal Card<>GBP<>9.40<>primero<>uno<>alberto1111@smallworldfs.com<>13
[2017/6/27 17:36:32][INFO     ]2.- (0)alberto@smallworldfs.com!!GBP<>5.4　Alberto Cuchillo　2
[2017/6/27 17:36:32][INFO     ]2.- (1)alberto@smallworldfs.com!!GBP<>3.4　Alberto Cuchillo　3
[2017/6/27 17:36:32][INFO     ]2.- (2)alberto@smallworldfs.com!!EUR<>2.4　Alberto Cuchillo　4
[2017/6/27 17:36:32][INFO     ]2.- (3)alberto@smallworldfs.com!!EUR<>1.61　Alberto Cuchillo　5
[2017/6/27 17:36:32][INFO     ]2.- (4)alberto@smallworldfs.com!!EUR<>2.4　Alberto Cuchillo　6
[2017/6/27 17:36:32][INFO     ]2.- (5)alberto1111@smallworldfs.com!!GBP<>9.4　uno primero　8
[2017/6/27 17:36:32][INFO     ]2.- (6)alberto1111@smallworldfs.com!!EUR<>9.7　uno primero　9
[2017/6/27 17:36:32][INFO     ]2.- (7)alberto1111@smallworldfs.com!!EUR<>1.3　uno primero　10
[2017/6/27 17:36:32][INFO     ]2.- (8)alberto1111@smallworldfs.com!!EUR<>2.41　uno primero　11
[2017/6/27 17:36:32][INFO     ]2.- (9)alberto1111@smallworldfs.com!!EUR<>6.6　uno primero　12
[2017/6/27 17:36:32][INFO     ]2.- (10)alberto1111@smallworldfs.com!!GBP<>9.4　uno primero　13
[2017/6/27 17:36:32][INFO     ]3.- (0)alberto1111@smallworldfs.com!!EUR<>20.009999999999998　uno primero　10
[2017/6/27 17:36:32][INFO     ]3.- (1)alberto1111@smallworldfs.com!!GBP<>18.8　uno primero　13
[2017/6/27 17:36:32][INFO     ]3.- (2)alberto@smallworldfs.com!!EUR<>6.41　Alberto Cuchillo　5
[2017/6/27 17:36:32][INFO     ]3.- (3)alberto@smallworldfs.com!!GBP<>8.8　Alberto Cuchillo　3
[2017/6/27 17:36:32][INFO     ]4.- (0)alberto1111@smallworldfs.com!!EUR<>20.01　uno primero　10
[2017/6/27 17:36:32][INFO     ]4.- (1)alberto1111@smallworldfs.com!!GBP<>18.8　uno primero　13
[2017/6/27 17:36:32][INFO     ]4.- (2)alberto@smallworldfs.com!!EUR<>6.41　Alberto Cuchillo　5
[2017/6/27 17:36:32][INFO     ]4.- (3)alberto@smallworldfs.com!!GBP<>8.8　Alberto Cuchillo　3
[2017/6/27 17:36:32][INFO     ]6.- **************************************** arrayValidosCSVAgrupadosRedondeadoLayout
